Offer Name,Title,Description,Type,Code,Offer Page  ( Ctrl C to copy ),start_date(m/d/Year),Expiry,Coupon_featured,Tracking Extra parameter
Fabfurnish,15% off on min. purchase of 1999 on all products,15% off on min. purchase of 1999 on all products,Coupon,FABOMG15B,http://clk.omgt5.com/?PID=9319&AID=830202&CID=4612072&MID=324020&r=http%3a%2f%2fwww.fabfurnish.com,18/08/2015 00:00:00,31/08/2015 00:00:00,2,aff_sub
Fabfurnish,20% off above 9999 only on all,20% off above 9999 only on all,Coupon,FABOMG20A,http://clk.omgt5.com/?PID=9319&AID=830202&CID=4612072&MID=324020&r=http%3a%2f%2fwww.fabfurnish.com,18/08/2015 00:00:00,31/08/2015 00:00:00,2,aff_sub
Fabfurnish,15% off above 1499 on all,15% off above 1499 on all,Coupon,FABOMG15A,http://clk.omgt5.com/?PID=9319&AID=830202&CID=4612072&MID=324020&r=http%3a%2f%2fwww.fabfurnish.com,18/08/2015 00:00:00,31/08/2015 00:00:00,2,aff_sub
Fabfurnish,300 off above 1299 on all products ,300 off above 1299 on all products ,Coupon,FABOMG300N,http://clk.omgt5.com/?PID=9319&AID=830202&CID=4612072&MID=324020&r=http%3a%2f%2fwww.fabfurnish.com,18/08/2015 00:00:00,31/08/2015 00:00:00,2,aff_sub
Fabfurnish,200 off above 999 on all products ,200 off above 999 on all products ,Coupon,FABOMG200,http://clk.omgt5.com/?PID=9319&AID=830202&CID=4612072&MID=324020&r=http%3a%2f%2fwww.fabfurnish.com,18/08/2015 00:00:00,31/08/2015 00:00:00,2,aff_sub
Fabfurnish,1000 off above 3999 on all,1000 off above 3999 on all,Coupon,FABOMG1K,http://clk.omgt5.com/?PID=9319&AID=830202&CID=4612072&MID=324020&r=http%3a%2f%2fwww.fabfurnish.com,18/08/2015 00:00:00,31/08/2015 00:00:00,2,aff_sub
