"pingou_store_id","offer_name","title","description","cashback_description","comment","type","code","offer_page","start_date","Expiry","Coupon_featured","Tracking Extra parameter","extra_tracking_param"
246,"Netshoes PINGOU","""Buy Sony Mobiles along with, battery charger""","""OFF on battery charger""","""description, hi hi""","comment",1,"code","http://www.google.com.br","04/07/2017","04/07/2018",1,"zpar0","&zpar1="
246,"Netshoes PINGOU","""Compare & Book from, more than 8000 Hotels.""","""Compare,than 8000 Hotels.""","""description, hi hi""","comment",0,,"http://www.google.com.br","04/07/2017","04/07/2018",2,"zpar1","&zpar1="
247,,"""Title1, Mobiles along with, battery charger""","""OFF on battery charger""","""description, hi hi""","comment",1,"code",,,,,,
247,,"""Title2, & Book from, more than 8000 Hotels.""","""Compare,than 8000 Hotels.""","""description, hi hi""","comment",0,,,,,,,
