date	offer_provider	pay_out_amount	sale_amount	transaction_id	user_tracking_id	cashback	plataform	type_cb	calc_cb	commission
15-02-2017 17:38:31	1Submarino	19.9	19.9	20161802	P0001230969	1	1	2	1	1
16-02-2017 17:38:32	2Submarino	14.99	14.99	20234412	P0001230969	0.75	2	3	2	2
17-02-2017 17:38:33	3Submarino	8.9	8.9	20843439	P0001230969	0.45	1	4	3	3
