date,offer_provider,pay_out_amount,sale_amount,transaction_id,user_tracking_id,cashback,plataform,type_cb,calc_cb,commission
15-12-2016 10:38:32,1Jabong.com1,112.236,1402.95,102f4r01f954r6e32c154688372590,P0001230230,10,1,2,"10,45",15
15-12-2016 17:31:08,1Paytm.com2,22.715,649,1021d45dr9freccd6a17c027b83d7f,P0001230230,15,2,2,"10,45",20
15-12-2016 10:38:32,1Jabong.com3,112.236,1402.95,10cd3501f954r6e32c154688372590,P0001230230,10,1,2,"10,45",15
15-12-2016 17:31:08,1Paytm.com4,22.715,649,1021d4554rfreccd6a17c027b83d7f,P0001230230,15,2,2,"10,45",20
15-12-2016 10:38:32,1Jabong.com5,112.236,1402.95,10tdf3501f954r6e32c154688372590,P0001230230,10,1,2,"10,45",15
15-12-2016 17:31:08,1Paytm.com6,22.715,649,1021d4e449freccd6a17c027b83d7f,P0001230230,15,2,2,"10,45",20