date,offer_provider,pay_out_amount,sale_amount,transaction_id,user_tracking_id,cashback,plataform,type_cb,calc_cb,commission
27-02-2017 10:38:32,1Jabong.com,112.236,1402.95,newnew1,P0001230850,10,1,2,"10,45",15
27-02-2017 17:31:08,2Paytm.com,22.715,649,newnew2,P0001230850,15,2,2,"10,45",20
28-02-2017 10:38:32,3Jabong.com,112.236,1402.95,newnew3,P0001230850,10,1,2,"10,45",15
28-02-2017 17:31:08,4Paytm.com,22.715,649,newnew4,P0001230850,15,2,2,"10,45",20
