date,offer_provider,pay_out_amount,sale_amount,transaction_id,user_tracking_id,cashback
2014-10-15 10:38:32,Jabong.com,112.236,1402.95,102f3501f95586e32c154688372590,CSKRT230001,10
2014-10-13 17:31:08,Paytm.com,22.715,649,1021d4554974eccd6a17c027b83d7f,CSKRT230038,15
