<?xml version="1.0" standalone="no"?>
<!DOCTYPE svg PUBLIC "-//W3C//DTD SVG 1.1//EN" "http://www.w3.org/Graphics/SVG/1.1/DTD/svg11.dtd" >
<svg xmlns="http://www.w3.org/2000/svg">
<metadata>Generated by IcoMoon</metadata>
<defs>
<font id="icomoon" horiz-adv-x="1024">
<font-face units-per-em="1024" ascent="960" descent="-64" />
<missing-glyph horiz-adv-x="1024" />
<glyph unicode="&#x20;" horiz-adv-x="512" d="" />
<glyph unicode="&#xe633;" glyph-name="drop" d="M512-51.2c-82.619 0-159.64 33.55-216.877 94.472-58.013 61.747-89.962 146.387-89.963 238.328 0 150.678 66.979 258.499 137.893 372.653 54.789 88.197 111.443 179.397 144.248 299.683 3.038 11.138 13.155 18.864 24.699 18.864s21.661-7.726 24.699-18.864c32.813-120.317 89.56-211.536 144.438-299.752 71-114.131 138.062-221.933 138.062-372.584 0-92.131-31.749-176.763-89.395-238.301-57.085-60.938-134.437-94.499-217.805-94.499zM512.003 864.592c-34.509-90.949-80.589-165.125-125.459-237.355-69.856-112.451-130.184-209.566-130.184-345.635 0-160.539 109.902-281.6 255.64-281.6 145.944 0 256 121.061 256 281.6 0 136.027-60.4 233.117-130.338 345.539-44.95 72.254-91.112 146.461-125.659 237.451z" />
<glyph unicode="&#xe635;" glyph-name="drop2" d="M512-51.2c-82.619 0-159.64 33.55-216.877 94.472-58.013 61.747-89.962 146.387-89.963 238.328 0 150.678 66.979 258.499 137.893 372.653 54.789 88.197 111.443 179.397 144.248 299.683 3.038 11.138 13.155 18.864 24.699 18.864s21.661-7.726 24.699-18.864c32.813-120.317 89.56-211.536 144.438-299.752 71-114.131 138.062-221.933 138.062-372.584 0-92.131-31.749-176.763-89.395-238.301-57.085-60.938-134.437-94.499-217.805-94.499zM512.003 864.592c-34.509-90.949-80.589-165.125-125.459-237.355-69.856-112.451-130.184-209.566-130.184-345.635 0-160.539 109.902-281.6 255.64-281.6 145.944 0 256 121.061 256 281.6 0 136.027-60.4 233.117-130.338 345.539-44.95 72.254-91.112 146.461-125.659 237.451zM512 102.4c-39.77 0-77.035 16.352-104.933 46.043-31.152 33.158-48.307 80.446-48.307 133.158 0 14.139 11.462 25.6 25.6 25.6s25.6-11.461 25.6-25.6c0-39.634 12.224-74.474 34.421-98.099 18.118-19.282 42.131-29.902 67.619-29.902 7.235 0 14.35 0.779 21.142 2.317 13.79 3.125 27.499-5.523 30.621-19.314 3.123-13.789-5.523-27.499-19.314-30.621-10.498-2.378-21.416-3.582-32.45-3.582z" />
<glyph unicode="&#xe66b;" glyph-name="lock" d="M742.4 563.2h-25.6v76.8c0 127.043-103.357 230.4-230.4 230.4s-230.4-103.357-230.4-230.4v-76.8h-25.6c-42.347 0-76.8-34.453-76.8-76.8v-409.6c0-42.347 34.453-76.8 76.8-76.8h512c42.347 0 76.8 34.453 76.8 76.8v409.6c0 42.347-34.453 76.8-76.8 76.8zM307.2 640c0 98.811 80.389 179.2 179.2 179.2s179.2-80.389 179.2-179.2v-76.8h-358.4v76.8zM768 76.8c0-14.115-11.485-25.6-25.6-25.6h-512c-14.115 0-25.6 11.485-25.6 25.6v409.6c0 14.115 11.485 25.6 25.6 25.6h512c14.115 0 25.6-11.485 25.6-25.6v-409.6z" />
<glyph unicode="&#xe696;" glyph-name="envelope" d="M896 665.6h-819.2c-42.347 0-76.8-34.453-76.8-76.8v-460.8c0-42.349 34.453-76.8 76.8-76.8h819.2c42.349 0 76.8 34.451 76.8 76.8v460.8c0 42.347-34.451 76.8-76.8 76.8zM896 614.4c1.514 0 2.99-0.158 4.434-0.411l-385.632-257.090c-14.862-9.907-41.938-9.907-56.802 0l-385.634 257.090c1.443 0.253 2.92 0.411 4.434 0.411h819.2zM896 102.4h-819.2c-14.115 0-25.6 11.485-25.6 25.6v438.566l378.4-252.267c15.925-10.618 36.363-15.925 56.8-15.925s40.877 5.307 56.802 15.925l378.398 252.267v-438.566c0-14.115-11.485-25.6-25.6-25.6z" />
<glyph unicode="&#xe71f;" glyph-name="user-plus" d="M486.4 409.6c-155.275 0-281.6 126.325-281.6 281.6s126.325 281.6 281.6 281.6 281.6-126.325 281.6-281.6-126.325-281.6-281.6-281.6zM486.4 921.6c-127.043 0-230.4-103.357-230.4-230.4s103.357-230.4 230.4-230.4c127.042 0 230.4 103.357 230.4 230.4s-103.358 230.4-230.4 230.4zM588.8-51.2h-512c-42.347 0-76.8 34.453-76.8 76.8 0 3.485 0.714 86.285 62.72 168.96 36.094 48.126 85.514 86.36 146.883 113.634 74.957 33.314 168.085 50.206 276.797 50.206 17.962 0 35.723-0.539 52.792-1.603 14.11-0.878 24.837-13.032 23.958-27.142-0.88-14.112-13.067-24.858-27.142-23.958-16.013 0.998-32.704 1.504-49.608 1.504-178.52 0-310.267-48.789-381-141.093-53.011-69.174-54.195-139.904-54.2-140.61 0-14.013 11.485-25.498 25.6-25.498h512c14.139 0 25.6-11.461 25.6-25.6s-11.461-25.6-25.6-25.6zM793.6-51.2c-127.043 0-230.4 103.357-230.4 230.4s103.357 230.4 230.4 230.4 230.4-103.357 230.4-230.4-103.357-230.4-230.4-230.4zM793.6 358.4c-98.811 0-179.2-80.389-179.2-179.2s80.389-179.2 179.2-179.2 179.2 80.389 179.2 179.2-80.389 179.2-179.2 179.2zM896 204.8h-76.8v76.8c0 14.139-11.461 25.6-25.6 25.6s-25.6-11.461-25.6-25.6v-76.8h-76.8c-14.139 0-25.6-11.461-25.6-25.6s11.461-25.6 25.6-25.6h76.8v-76.8c0-14.139 11.461-25.6 25.6-25.6s25.6 11.461 25.6 25.6v76.8h76.8c14.139 0 25.6 11.461 25.6 25.6s-11.461 25.6-25.6 25.6z" />
<glyph unicode="&#xe8fa;" glyph-name="enter-right" d="M545.099 606.901c-9.997-9.997-9.997-26.206 0-36.203l109.898-109.898h-629.397c-14.138 0-25.6-11.462-25.6-25.6s11.462-25.6 25.6-25.6h629.397l-109.899-109.899c-9.997-9.997-9.997-26.206 0-36.203s26.206-9.998 36.203 0l153.6 153.6c5 5 7.499 11.55 7.499 18.102s-2.499 13.102-7.499 18.101l-153.6 153.6c-9.997 9.998-26.205 9.998-36.202 0zM972.8 742.4v-614.4c0-42.347-34.451-76.8-76.8-76.8h-512c-42.347 0-76.8 34.453-76.8 76.8v204.8c0 14.138 11.462 25.6 25.6 25.6s25.6-11.462 25.6-25.6v-204.8c0-14.115 11.485-25.6 25.6-25.6h512c14.115 0 25.6 11.485 25.6 25.6v614.4c0 14.115-11.485 25.6-25.6 25.6h-512c-14.115 0-25.6-11.485-25.6-25.6v-204.8c0-14.139-11.462-25.6-25.6-25.6s-25.6 11.461-25.6 25.6v204.8c0 42.349 34.453 76.8 76.8 76.8h512c42.349 0 76.8-34.451 76.8-76.8z" />
<glyph unicode="&#xe8ff;" glyph-name="enter-up2" d="M896 921.6h-819.2c-42.347 0-76.8-34.451-76.8-76.8v-51.2c0-42.349 34.453-76.8 76.8-76.8h256c14.138 0 25.6 11.461 25.6 25.6s-11.462 25.6-25.6 25.6h-256c-14.115 0-25.6 11.485-25.6 25.6v51.2c0 14.115 11.485 25.6 25.6 25.6h819.2c14.115 0 25.6-11.485 25.6-25.6v-51.2c0-14.115-11.485-25.6-25.6-25.6h-256c-14.139 0-25.6-11.461-25.6-25.6s11.461-25.6 25.6-25.6h256c42.349 0 76.8 34.451 76.8 76.8v51.2c0 42.349-34.451 76.8-76.8 76.8zM760.499 493.901c-9.995-9.997-26.206-9.997-36.203 0l-212.296 212.294v-731.795c0-14.138-11.462-25.6-25.6-25.6s-25.6 11.462-25.6 25.6v731.795l-212.298-212.294c-9.998-9.997-26.206-9.997-36.205 0-9.997 9.995-9.997 26.206 0 36.203l256 256c5 4.997 11.55 7.496 18.102 7.496s13.102-2.499 18.102-7.501l256-256c9.997-9.995 9.997-26.203-0.003-36.198z" />
<glyph unicode="&#xe90b;" glyph-name="droplet" d="M864.626 486.838c-65.754 183.44-205.11 348.15-352.626 473.162-147.516-125.012-286.87-289.722-352.626-473.162-40.664-113.436-44.682-236.562 12.584-345.4 65.846-125.14 198.632-205.438 340.042-205.438s274.196 80.298 340.040 205.44c57.27 108.838 53.25 231.962 12.586 345.398zM738.764 201.044c-43.802-83.252-132.812-137.044-226.764-137.044-55.12 0-108.524 18.536-152.112 50.652 13.242-1.724 26.632-2.652 40.112-2.652 117.426 0 228.668 67.214 283.402 171.242 44.878 85.292 40.978 173.848 23.882 244.338 14.558-28.15 26.906-56.198 36.848-83.932 22.606-63.062 40.024-156.34-5.368-242.604z" />
<glyph unicode="&#xea8b;" glyph-name="google-plus" d="M325.8 502.6v-111.8h184.8c-7.4-48-55.8-140.6-184.8-140.6-111.2 0-202 92.2-202 205.8s90.8 205.8 202 205.8c63.4 0 105.6-27 129.8-50.2l88.4 85.2c-56.8 53-130.4 85.2-218.2 85.2-180.2-0.2-325.8-145.8-325.8-326s145.6-325.8 325.8-325.8c188 0 312.8 132.2 312.8 318.4 0 21.4-2.4 37.8-5.2 54h-307.6zM1024 512h-96v96h-96v-96h-96v-96h96v-96h96v96h96z" />
<glyph unicode="&#xea90;" glyph-name="facebook" d="M608 768h160v192h-160c-123.514 0-224-100.486-224-224v-96h-128v-192h128v-512h192v512h160l32 192h-192v96c0 17.346 14.654 32 32 32z" />
<glyph unicode="&#xea91;" glyph-name="facebook2" d="M928 960h-832c-52.8 0-96-43.2-96-96v-832c0-52.8 43.2-96 96-96h416v448h-128v128h128v64c0 105.8 86.2 192 192 192h128v-128h-128c-35.2 0-64-28.8-64-64v-64h192l-32-128h-160v-448h288c52.8 0 96 43.2 96 96v832c0 52.8-43.2 96-96 96z" />
<glyph unicode="&#xea92;" glyph-name="instagram" d="M512 867.8c136.8 0 153-0.6 206.8-3 50-2.2 77-10.6 95-17.6 23.8-9.2 41-20.4 58.8-38.2 18-18 29-35 38.4-58.8 7-18 15.4-45.2 17.6-95 2.4-54 3-70.2 3-206.8s-0.6-153-3-206.8c-2.2-50-10.6-77-17.6-95-9.2-23.8-20.4-41-38.2-58.8-18-18-35-29-58.8-38.4-18-7-45.2-15.4-95-17.6-54-2.4-70.2-3-206.8-3s-153 0.6-206.8 3c-50 2.2-77 10.6-95 17.6-23.8 9.2-41 20.4-58.8 38.2-18 18-29 35-38.4 58.8-7 18-15.4 45.2-17.6 95-2.4 54-3 70.2-3 206.8s0.6 153 3 206.8c2.2 50 10.6 77 17.6 95 9.2 23.8 20.4 41 38.2 58.8 18 18 35 29 58.8 38.4 18 7 45.2 15.4 95 17.6 53.8 2.4 70 3 206.8 3zM512 960c-139 0-156.4-0.6-211-3-54.4-2.4-91.8-11.2-124.2-23.8-33.8-13.2-62.4-30.6-90.8-59.2-28.6-28.4-46-57-59.2-90.6-12.6-32.6-21.4-69.8-23.8-124.2-2.4-54.8-3-72.2-3-211.2s0.6-156.4 3-211c2.4-54.4 11.2-91.8 23.8-124.2 13.2-33.8 30.6-62.4 59.2-90.8 28.4-28.4 57-46 90.6-59 32.6-12.6 69.8-21.4 124.2-23.8 54.6-2.4 72-3 211-3s156.4 0.6 211 3c54.4 2.4 91.8 11.2 124.2 23.8 33.6 13 62.2 30.6 90.6 59s46 57 59 90.6c12.6 32.6 21.4 69.8 23.8 124.2 2.4 54.6 3 72 3 211s-0.6 156.4-3 211c-2.4 54.4-11.2 91.8-23.8 124.2-12.6 34-30 62.6-58.6 91-28.4 28.4-57 46-90.6 59-32.6 12.6-69.8 21.4-124.2 23.8-54.8 2.6-72.2 3.2-211.2 3.2v0zM512 711c-145.2 0-263-117.8-263-263s117.8-263 263-263 263 117.8 263 263c0 145.2-117.8 263-263 263zM512 277.4c-94.2 0-170.6 76.4-170.6 170.6s76.4 170.6 170.6 170.6c94.2 0 170.6-76.4 170.6-170.6s-76.4-170.6-170.6-170.6zM846.8 721.4c0-33.91-27.49-61.4-61.4-61.4s-61.4 27.49-61.4 61.4c0 33.91 27.49 61.4 61.4 61.4s61.4-27.49 61.4-61.4z" />
<glyph unicode="&#xea93;" glyph-name="whatsapp" d="M873 811.2c-95.8 96-223.2 148.8-359 148.8-279.6 0-507.2-227.6-507.2-507.4 0-89.4 23.4-176.8 67.8-253.6l-72-263 269 70.6c74.2-40.4 157.6-61.8 242.4-61.8h0.2c0 0 0 0 0 0 279.6 0 507.4 227.6 507.4 507.4 0 135.6-52.8 263-148.6 359zM514.2 30.4v0c-75.8 0-150 20.4-214.8 58.8l-15.4 9.2-159.6-41.8 42.6 155.6-10 16c-42.4 67-64.6 144.6-64.6 224.4 0 232.6 189.2 421.8 422 421.8 112.6 0 218.6-44 298.2-123.6 79.6-79.8 123.4-185.6 123.4-298.4-0.2-232.8-189.4-422-421.8-422zM745.4 346.4c-12.6 6.4-75 37-86.6 41.2s-20 6.4-28.6-6.4c-8.4-12.6-32.8-41.2-40.2-49.8-7.4-8.4-14.8-9.6-27.4-3.2s-53.6 19.8-102 63c-37.6 33.6-63.2 75.2-70.6 87.8s-0.8 19.6 5.6 25.8c5.8 5.6 12.6 14.8 19 22.2s8.4 12.6 12.6 21.2c4.2 8.4 2.2 15.8-1 22.2s-28.6 68.8-39 94.2c-10.2 24.8-20.8 21.4-28.6 21.8-7.4 0.4-15.8 0.4-24.2 0.4s-22.2-3.2-33.8-15.8c-11.6-12.6-44.4-43.4-44.4-105.8s45.4-122.6 51.8-131.2c6.4-8.4 89.4-136.6 216.6-191.4 30.2-13 53.8-20.8 72.2-26.8 30.4-9.6 58-8.2 79.8-5 24.4 3.6 75 30.6 85.6 60.2s10.6 55 7.4 60.2c-3 5.6-11.4 8.8-24.2 15.2z" />
<glyph unicode="&#xeaba;" glyph-name="tumblr2" d="M928 960h-832c-52.8 0-96-43.2-96-96v-832c0-52.8 43.2-96 96-96h832c52.8 0 96 43.2 96 96v832c0 52.8-43.2 96-96 96zM731.8 135.4c-30.2-14.2-57.6-24.2-82-30-24.4-5.6-51-8.6-79.4-8.6-32.4 0-51.4 4-76.2 12.2s-46 19.8-63.6 34.8c-17.6 15.2-29.6 31.2-36.4 48.2s-10.2 41.6-10.2 74v247.8h-96v100c27.8 9 60 22 79.6 38.8 19.8 16.8 35.8 37 47.6 60.6 12 23.6 20.2 53.6 24.8 90h100.4v-163.2h163.6v-126.2h-163.4v-181.2c0-41-0.6-64.6 3.8-76.2s15.2-23.6 27-30.4c15.6-9.4 33.6-14 53.6-14 35.8 0 71.4 11.6 106.8 34.8v-111.4z" />
</font></defs></svg>