"offer_name","coupon_image","image_url","location","category","amount","store_id","offer_page","start_date","expiry_date","type","coupon_code","original_price","price","extra_url","features_type","tracking_extra_param","extra_tracking_param","short_description","long_description"
"“Premium test ONE”","32.jpg",,"Madurai",39,100,246,"netshoes.com.br","27/06/2017","30/12/2018",1,"CSKRT",1000,300,,"popular","extra ONE","extra TWO","""short description,short description""","""Long description,long description"""
"“Premium test TWO”",,"static1.netshoes.net/Produtos/tenis-adidas-vs-pace-masculino/06/COL-0552-006/COL-0552-006_detalhe1.jpg?resize=254:*","Madurai",39,300,246,"Jabong.com",,,,,1001,500,,"popular",,,"""short description,short description""","""Long description,long description"""
