"offer_name","coupon_image","image_url","location","category","amount","store_id","offer_page","start_date","expiry_date","type","coupon_code","original_price","price","extra_url","features_type","tracking_extra_param","extra_tracking_param","short_description","long_description"
"premiumtest1","32.jpg",,"Madurai",35,300,246,"netshoes.com.br","27/06/2017","30/12/2018",1,"CSKRT",1000,300,,"popular","extra one","extra two","""short description,short description""","""Long description,long description"""
"premiumtest2",,"http://static1.netshoes.net/Produtos/bicicleta-colli-ultimate-mtb-aro-29-21-marchas-freios-a-disco/14/I78-0056-014/I78-0056-014_detalhe1.jpg?resize=254:*","Madurai",35,300,246,"netshoes.com.br/bike/bicicletas",,,0,,1001,500,,"popular",,,"""short description,short description""","""Long description,long description"""
